Script.R
…
## Warning in rbind(names(probs), probs_f): number of columns of result is not
## a multiple of vector length (arg 1)

## Warning: 2200 parsing failures.
## row # A tibble: 5 x 5 col     row   col               expected actual                           file expected   <int> <chr>                  <chr>  <chr>                          <chr> actual 1  2157  year no trailing characters     e3 'data/fertility_schedules.csv' file 2  2158  year no trailing characters     e3 'data/fertility_schedules.csv' row 3  2159  year no trailing characters     e3 'data/fertility_schedules.csv' col 4  2160  year no trailing characters     e3 'data/fertility_schedules.csv' expected 5  2161  year no trailing characters     e3 'data/fertility_schedules.csv'
## ... ................. ... .......................................................................... ........ .......................................................................... ...... .......................................................................... .... .......................................................................... ... .......................................................................... ... .......................................................................... ........ ..........................................................................
## See problems(...) for more details.

dta_schedules

## # A tibble: 166,056 x 4
##     code  year   age    asfr
##    <chr> <int> <int>   <dbl>
##  1   AUT  1951    12 0.00000
##  2   AUT  1951    13 0.00000
##  3   AUT  1951    14 0.00037
##  4   AUT  1951    15 0.00150
##  5   AUT  1951    16 0.00846
##  6   AUT  1951    17 0.02615
##  7   AUT  1951    18 0.05113
##  8   AUT  1951    19 0.07838
##  9   AUT  1951    20 0.10010
## 10   AUT  1951    21 0.11041
## # ... with 166,046 more rows
…
## Joining, by = c("age", "year")

## # A tibble: 10,920 x 4
##      age  year population  asfr
##    <int> <int>      <int> <dbl>
##  1     0  2002      21791     0
##  2     0  2003      22352     0
##  3     0  2004      23211     0
##  4     0  2005      23607     0
##  5     0  2006      24508     0
##  6     0  2007      25286     0
##  7     0  2008      26274     0
##  8     0  2009      26159     0
##  9     0  2010      26402     0
## 10     0  2011      26849     0
## # ... with 10,910 more rows
## # A tibble: 10,920 x 5
##      age  year population  asfr babies_by_age
##    <int> <int>      <int> <dbl>         <dbl>
##  1     0  2002      21791     0             0
##  2     0  2003      22352     0             0
##  3     0  2004      23211     0             0
##  4     0  2005      23607     0             0
##  5     0  2006      24508     0             0
##  6     0  2007      25286     0             0
##  7     0  2008      26274     0             0
##  8     0  2009      26159     0             0
##  9     0  2010      26402     0             0
## 10     0  2011      26849     0             0
## # ... with 10,910 more rows
…
## Joining, by = c("age", "year")

## # A tibble: 10,920 x 5
##           region   age  year population  asfr
##            <chr> <int> <int>      <int> <dbl>
##  1 East Midlands     0  2002      21791     0
##  2 East Midlands     0  2003      22352     0
##  3 East Midlands     0  2004      23211     0
##  4 East Midlands     0  2005      23607     0
##  5 East Midlands     0  2006      24508     0
##  6 East Midlands     0  2007      25286     0
##  7 East Midlands     0  2008      26274     0
##  8 East Midlands     0  2009      26159     0
##  9 East Midlands     0  2010      26402     0
## 10 East Midlands     0  2011      26849     0
## # ... with 10,910 more rows
## # A tibble: 10,920 x 6
##           region   age  year population  asfr babies_by_age
##            <chr> <int> <int>      <int> <dbl>         <dbl>
##  1 East Midlands     0  2002      21791     0             0
##  2 East Midlands     0  2003      22352     0             0
##  3 East Midlands     0  2004      23211     0             0
##  4 East Midlands     0  2005      23607     0             0
##  5 East Midlands     0  2006      24508     0             0
##  6 East Midlands     0  2007      25286     0             0
##  7 East Midlands     0  2008      26274     0             0
##  8 East Midlands     0  2009      26159     0             0
##  9 East Midlands     0  2010      26402     0             0
## 10 East Midlands     0  2011      26849     0             0
## # ... with 10,910 more rows

baby_predictions_byregion

## # A tibble: 100 x 3
##           region  year total_babies_expected
##            <chr> <dbl>                 <dbl>
##  1 East Midlands  2003              45989.53
##  2 East Midlands  2004              48017.97
##  3 East Midlands  2005              49579.75
##  4 East Midlands  2006              49967.98
##  5 East Midlands  2007              51756.17
##  6 East Midlands  2008              53192.94
##  7 East Midlands  2009              54456.83
##  8 East Midlands  2010              54075.85
##  9 East Midlands  2011              55201.43
## 10 East Midlands  2012              55206.07
## # ... with 90 more rows
…
## Joining, by = c("region", "year")

baby_gap_byregion

## # A tibble: 100 x 5
##           region  year total_babies_observed total_babies_expected
##            <chr> <dbl>                 <int>                 <dbl>
##  1 East Midlands  2003                 45983              45989.53
##  2 East Midlands  2004                 47981              48017.97
##  3 East Midlands  2005                 48473              49579.75
##  4 East Midlands  2006                 50286              49967.98
##  5 East Midlands  2007                 51647              51756.17
##  6 East Midlands  2008                 53927              53192.94
##  7 East Midlands  2009                 53341              54456.83
##  8 East Midlands  2010                 54140              54075.85
##  9 East Midlands  2011                 54848              55201.43
## 10 East Midlands  2012                 55849              55206.07
## # ... with 90 more rows, and 1 more variables: percent_difference <dbl>
…
